^C:\USERS\АНАСТАСИЯ\SOURCE\REPOS\HOMEWORK16\HOMEWORK16.CPP
C:\USERS\Анастасия\SOURCE\REPOS\HOMEWORK16\DEBUG\VC142.PDB
C:\USERS\Анастасия\SOURCE\REPOS\HOMEWORK16\DEBUG\VC142.IDB
C:\USERS\Анастасия\SOURCE\REPOS\HOMEWORK16\DEBUG\HOMEWORK16.OBJ
